{
    "name": "SnakesInSpace",
    "references": [
        "GUID:0d8beb7f090555447a6cf5ce9e54dbb4"
    ],
    "optionalUnityReferences": [],
    "includePlatforms": [],
    "excludePlatforms": [],
    "allowUnsafeCode": false,
    "overrideReferences": false,
    "precompiledReferences": [],
    "autoReferenced": true,
    "defineConstraints": [],
    "versionDefines": []
}